London Marathon Data Analysis
…
4.3 Create new variables and visulization

Let \(x\) denote the number of applicants in a year, \(y_1\) the number of accepted in a year, \(y_2\) the number of starters in a year, \(y_3\) the number of finishers in a year. We define the ratio of accepted as \(r_1=\frac{y_1}{x}\), ratio of starters as \(r_2=\frac{y_2}{y_1}\), ratio of finishers as \(r_3=\frac{y_3}{y_2}\).

# A tibble: 45 × 4
    Year `Ratio of Accepted` `Ratio of Starters` `Ratio of Finishers`
   <dbl>               <dbl>               <dbl>                <dbl>
 1  1981               0.387               0.911                0.887
 2  1982               0.201               0.905                0.925
 3  1983               0.329               0.836                0.957
 4  1984               0.302               0.804                0.922
 5  1985               0.268               0.786                0.907
 6  1986               0.320               0.753                0.938
 7  1987               0.355               0.757                0.912
 8  1988               0.411               0.749                0.932
 9  1989               0.441               0.770                0.928
10  1990               0.478               0.760                0.944
# ℹ 35 more rows
…
